analysis/BAT54WS-HE3/5V_drive_30mA.csv

,Channel 1,Channel 2
Revision:           ,0,0
Type:               ,interpolation,interpolation
Start:              ,0,0
Points:             ,15983,15983
Count:              ,1,1
XDispRange:         ,2.00000E-08,2.00000E-08
XDispOrg:           ,-6.736600000E-09,-6.736600000E-09
XInc:               ,1.2500000E-11,1.2500000E-11
XOrg:               ,-9.6483301777E-08,-9.6483301777E-08
Units:              ,second,second
YDispRange:         ,8.00000E-02,8.00000E-01
YDispOrg:           ,0.0E+00,2.91999995708466E-01
YInc:               ,1.317319629379E-06,1.3173196748539E-05
YOrg:               ,1.16459288484805E-03,3.03645929250506E-01
Units:              ,Volt,Volt
Frame:              ,MSO9404A:MY53310147,MSO9404A:MY53310147
Date:               ,6 JUL 2021,6 JUL 2021
Time:               ,08:30:14,08:30:14
Max Bandwidth:      ,1139000000,1139000000
Min Bandwidth:      ,0,0
Time Tags (Channel 1),Channel 1,Channel 2
-9.64833E-08, -1.7241E-02, -4.565E-02
-9.64708E-08, -1.7236E-02, -4.571E-02
-9.64583E-08, -1.7225E-02, -4.571E-02
-9.64458E-08, -1.7220E-02, -4.581E-02
-9.64333E-08, -1.7220E-02, -4.597E-02
-9.64208E-08, -1.7204E-02, -4.597E-02
-9.64083E-08, -1.7199E-02, -4.597E-02
-9.63958E-08, -1.7194E-02, -4.602E-02
-9.63833E-08, -1.7178E-02, -4.613E-02
-9.63708E-08, -1.7172E-02, -4.608E-02
-9.63583E-08, -1.7157E-02, -4.613E-02
-9.63458E-08, -1.7146E-02, -4.613E-02
-9.63333E-08, -1.7136E-02, -4.613E-02
-9.63208E-08, -1.7130E-02, -4.602E-02
-9.63083E-08, -1.7115E-02, -4.602E-02
-9.62958E-08, -1.7109E-02, -4.597E-02
-9.62833E-08, -1.7088E-02, -4.587E-02
-9.62708E-08, -1.7088E-02, -4.576E-02
-9.62583E-08, -1.7078E-02, -4.560E-02
-9.62458E-08, -1.7072E-02, -4.544E-02
-9.62333E-08, -1.7072E-02, -4.539E-02
-9.62208E-08, -1.7051E-02, -4.539E-02
-9.62083E-08, -1.7046E-02, -4.507E-02
-9.61958E-08, -1.7046E-02, -4.492E-02
-9.61833E-08, -1.7041E-02, -4.481E-02
-9.61708E-08, -1.7030E-02, -4.465E-02
-9.61583E-08, -1.7020E-02, -4.444E-02
-9.61458E-08, -1.7014E-02, -4.434E-02
-9.61333E-08, -1.7020E-02, -4.413E-02
-9.61208E-08, -1.7009E-02, -4.397E-02
-9.61083E-08, -1.7014E-02, -4.386E-02
-9.60958E-08, -1.7009E-02, -4.370E-02
-9.60833E-08, -1.7004E-02, -4.355E-02
-9.60708E-08, -1.6999E-02, -4.349E-02
-9.60583E-08, -1.6999E-02, -4.339E-02
-9.60458E-08, -1.6993E-02, -4.318E-02
-9.60333E-08, -1.7009E-02, -4.318E-02
-9.60208E-08, -1.7004E-02, -4.307E-02
-9.60083E-08, -1.7009E-02, -4.307E-02
-9.59958E-08, -1.7014E-02, -4.307E-02
-9.59833E-08, -1.7020E-02, -4.313E-02
-9.59708E-08, -1.7030E-02, -4.307E-02
-9.59583E-08, -1.7035E-02, -4.313E-02
-9.59458E-08, -1.7041E-02, -4.318E-02
-9.59333E-08, -1.7062E-02, -4.328E-02
-9.59208E-08, -1.7067E-02, -4.334E-02
-9.59083E-08, -1.7078E-02, -4.344E-02
-9.58958E-08, -1.7088E-02, -4.360E-02
-9.58833E-08, -1.7099E-02, -4.360E-02
-9.58708E-08, -1.7120E-02, -4.386E-02
-9.58583E-08, -1.7125E-02, -4.392E-02
-9.58458E-08, -1.7141E-02, -4.407E-02
-9.58333E-08, -1.7157E-02, -4.418E-02
-9.58208E-08, -1.7172E-02, -4.434E-02
-9.58083E-08, -1.7178E-02, -4.439E-02
-9.57958E-08, -1.7188E-02, -4.455E-02
-9.57833E-08, -1.7204E-02, -4.465E-02
-9.57708E-08, -1.7215E-02, -4.465E-02
-9.57583E-08, -1.7225E-02, -4.481E-02
-9.57458E-08, -1.7230E-02, -4.486E-02
-9.57333E-08, -1.7230E-02, -4.497E-02
-9.57208E-08, -1.7236E-02, -4.497E-02
-9.57083E-08, -1.7236E-02, -4.486E-02
-9.56958E-08, -1.7236E-02, -4.481E-02
-9.56833E-08, -1.7225E-02, -4.481E-02
-9.56708E-08, -1.7230E-02, -4.471E-02
-9.56583E-08, -1.7215E-02, -4.476E-02
-9.56458E-08, -1.7215E-02, -4.460E-02
-9.56333E-08, -1.7199E-02, -4.434E-02
-9.56208E-08, -1.7183E-02, -4.418E-02
-9.56083E-08, -1.7167E-02, -4.402E-02
-9.55958E-08, -1.7146E-02, -4.386E-02
-9.55833E-08, -1.7130E-02, -4.381E-02
-9.55708E-08, -1.7109E-02, -4.339E-02
-9.55583E-08, -1.7088E-02, -4.334E-02
-9.55458E-08, -1.7062E-02, -4.313E-02
-9.55333E-08, -1.7041E-02, -4.297E-02
-9.55208E-08, -1.7009E-02, -4.270E-02
-9.55083E-08, -1.6988E-02, -4.260E-02
-9.54958E-08, -1.6956E-02, -4.233E-02
-9.54833E-08, -1.6941E-02, -4.212E-02
-9.54708E-08, -1.6914E-02, -4.207E-02
-9.54583E-08, -1.6893E-02, -4.191E-02
-9.54458E-08, -1.6872E-02, -4.176E-02
-9.54333E-08, -1.6862E-02, -4.165E-02
-9.54208E-08, -1.6835E-02, -4.154E-02
-9.54083E-08, -1.6819E-02, -4.139E-02
-9.53958E-08, -1.6809E-02, -4.144E-02
-9.53833E-08, -1.6804E-02, -4.149E-02
-9.53708E-08, -1.6783E-02, -4.144E-02
-9.53583E-08, -1.6767E-02, -4.144E-02
-9.53458E-08, -1.6767E-02, -4.149E-02
-9.53333E-08, -1.6767E-02, -4.165E-02
-9.53208E-08, -1.6756E-02, -4.160E-02
-9.53083E-08, -1.6761E-02, -4.181E-02
-9.52958E-08, -1.6751E-02, -4.186E-02
-9.52833E-08, -1.6756E-02, -4.202E-02
-9.52708E-08, -1.6756E-02, -4.207E-02
-9.52583E-08, -1.6772E-02, -4.233E-02
-9.52458E-08, -1.6772E-02, -4.244E-02
-9.52333E-08, -1.6772E-02, -4.265E-02
-9.52208E-08, -1.6772E-02, -4.281E-02
-9.52083E-08, -1.6783E-02, -4.297E-02
-9.51958E-08, -1.6788E-02, -4.307E-02
-9.51833E-08, -1.6793E-02, -4.334E-02
-9.51708E-08, -1.6809E-02, -4.349E-02
-9.51583E-08, -1.6804E-02, -4.355E-02
-9.51458E-08, -1.6814E-02, -4.376E-02
-9.51333E-08, -1.6825E-02, -4.381E-02
-9.51208E-08, -1.6819E-02, -4.402E-02
-9.51083E-08, -1.6830E-02, -4.407E-02
-9.50958E-08, -1.6835E-02, -4.418E-02
-9.50833E-08, -1.6835E-02, -4.428E-02
-9.50708E-08, -1.6856E-02, -4.428E-02
-9.50583E-08, -1.6862E-02, -4.439E-02
-9.50458E-08, -1.6856E-02, -4.439E-02
-9.50333E-08, -1.6872E-02, -4.450E-02
-9.50208E-08, -1.6872E-02, -4.439E-02
-9.50083E-08, -1.6888E-02, -4.444E-02
-9.49958E-08, -1.6888E-02, -4.434E-02
-9.49833E-08, -1.6898E-02, -4.444E-02
-9.49708E-08, -1.6904E-02, -4.439E-02
-9.49583E-08, -1.6914E-02, -4.439E-02
-9.49458E-08, -1.6920E-02, -4.434E-02
-9.49333E-08, -1.6930E-02, -4.434E-02
-9.49208E-08, -1.6935E-02, -4.418E-02
-9.49083E-08, -1.6935E-02, -4.418E-02
-9.48958E-08, -1.6946E-02, -4.413E-02
-9.48833E-08, -1.6956E-02, -4.413E-02
-9.48708E-08, -1.6956E-02, -4.413E-02
-9.48583E-08, -1.6967E-02, -4.407E-02
-9.48458E-08, -1.6972E-02, -4.407E-02
-9.48333E-08, -1.6983E-02, -4.407E-02
-9.48208E-08, -1.6988E-02, -4.402E-02
-9.48083E-08, -1.6988E-02, -4.397E-02
-9.47958E-08, -1.6988E-02, -4.397E-02
-9.47833E-08, -1.6988E-02, -4.407E-02
-9.47708E-08, -1.6993E-02, -4.397E-02
-9.47583E-08, -1.6988E-02, -4.397E-02
-9.47458E-08, -1.6999E-02, -4.392E-02
-9.47333E-08, -1.7004E-02, -4.397E-02
-9.47208E-08, -1.6999E-02, -4.386E-02
-9.47083E-08, -1.6999E-02, -4.397E-02
-9.46958E-08, -1.6999E-02, -4.397E-02
-9.46833E-08, -1.6999E-02, -4.392E-02
-9.46708E-08, -1.6993E-02, -4.392E-02
-9.46583E-08, -1.6999E-02, -4.397E-02
-9.46458E-08, -1.6999E-02, -4.381E-02
-9.46333E-08, -1.7004E-02, -4.386E-02
-9.46208E-08, -1.7004E-02, -4.381E-02
-9.46083E-08, -1.7009E-02, -4.376E-02
-9.45958E-08, -1.7014E-02, -4.376E-02
-9.45833E-08, -1.7030E-02, -4.370E-02
-9.45708E-08, -1.7030E-02, -4.370E-02
-9.45583E-08, -1.7041E-02, -4.365E-02
-9.45458E-08, -1.7051E-02, -4.365E-02
-9.45333E-08, -1.7067E-02, -4.355E-02
-9.45208E-08, -1.7083E-02, -4.355E-02
-9.45083E-08, -1.7109E-02, -4.349E-02
-9.44958E-08, -1.7115E-02, -4.349E-02
-9.44833E-08, -1.7136E-02, -4.344E-02
-9.44708E-08, -1.7151E-02, -4.349E-02
-9.44583E-08, -1.7178E-02, -4.344E-02
-9.44458E-08, -1.7199E-02, -4.339E-02
-9.44333E-08, -1.7220E-02, -4.349E-02
-9.44208E-08, -1.7241E-02, -4.344E-02
-9.44083E-08, -1.7262E-02, -4.355E-02
-9.43958E-08, -1.7278E-02, -4.355E-02
-9.43833E-08, -1.7299E-02, -4.370E-02
-9.43708E-08, -1.7320E-02, -4.365E-02
-9.43583E-08, -1.7346E-02, -4.381E-02
-9.43458E-08, -1.7352E-02, -4.397E-02
-9.43333E-08, -1.7367E-02, -4.402E-02
-9.43208E-08, -1.7373E-02, -4.407E-02
-9.43083E-08, -1.7378E-02, -4.423E-02
-9.42958E-08, -1.7383E-02, -4.439E-02
-9.42833E-08, -1.7389E-02, -4.450E-02
-9.42708E-08, -1.7394E-02, -4.460E-02
-9.42583E-08, -1.7389E-02, -4.471E-02
-9.42458E-08, -1.7383E-02, -4.486E-02
-9.42333E-08, -1.7373E-02, -4.502E-02
-9.42208E-08, -1.7357E-02, -4.513E-02
-9.42083E-08, -1.7346E-02, -4.523E-02
-9.41958E-08, -1.7336E-02, -4.523E-02
-9.41833E-08, -1.7325E-02, -4.544E-02
-9.41708E-08, -1.7304E-02, -4.539E-02
-9.41583E-08, -1.7283E-02, -4.550E-02
-9.41458E-08, -1.7267E-02, -4.555E-02
-9.41333E-08, -1.7246E-02, -4.560E-02
-9.41208E-08, -1.7236E-02, -4.565E-02
-9.41083E-08, -1.7215E-02, -4.560E-02
-9.40958E-08, -1.7194E-02, -4.555E-02
-9.40833E-08, -1.7162E-02, -4.555E-02
-9.40708E-08, -1.7162E-02, -4.544E-02
-9.40583E-08, -1.7141E-02, -4.550E-02
-9.40458E-08, -1.7125E-02, -4.534E-02
-9.40333E-08, -1.7120E-02, -4.539E-02
-9.40208E-08, -1.7104E-02, -4.529E-02
-9.40083E-08, -1.7088E-02, -4.518E-02
-9.39958E-08, -1.7078E-02, -4.507E-02
-9.39833E-08, -1.7083E-02, -4.507E-02
-9.39708E-08, -1.7072E-02, -4.497E-02
-9.39583E-08, -1.7067E-02, -4.492E-02
-9.39458E-08, -1.7067E-02, -4.476E-02
-9.39333E-08, -1.7067E-02, -4.481E-02
-9.39208E-08, -1.7062E-02, -4.476E-02
-9.39083E-08, -1.7067E-02, -4.476E-02
-9.38958E-08, -1.7072E-02, -4.465E-02
-9.38833E-08, -1.7067E-02, -4.460E-02
-9.38708E-08, -1.7078E-02, -4.465E-02
-9.38583E-08, -1.7072E-02, -4.471E-02
-9.38458E-08, -1.7072E-02, -4.465E-02
-9.38333E-08, -1.7072E-02, -4.481E-02
-9.38208E-08, -1.7072E-02, -4.481E-02
-9.38083E-08, -1.7078E-02, -4.486E-02
-9.37958E-08, -1.7078E-02, -4.502E-02
-9.37833E-08, -1.7083E-02, -4.513E-02
-9.37708E-08, -1.7072E-02, -4.518E-02
-9.37583E-08, -1.7078E-02, -4.523E-02
-9.37458E-08, -1.7072E-02, -4.544E-02
-9.37333E-08, -1.7062E-02, -4.544E-02
-9.37208E-08, -1.7057E-02, -4.565E-02
-9.37083E-08, -1.7057E-02, -4.581E-02
-9.36958E-08, -1.7041E-02, -4.592E-02
-9.36833E-08, -1.7035E-02, -4.592E-02
-9.36708E-08, -1.7030E-02, -4.613E-02
-9.36583E-08, -1.7014E-02, -4.623E-02
-9.36458E-08, -1.7004E-02, -4.623E-02
-9.36333E-08, -1.7004E-02, -4.639E-02
-9.36208E-08, -1.6988E-02, -4.644E-02
-9.36083E-08, -1.6972E-02, -4.644E-02
-9.35958E-08, -1.6972E-02, -4.655E-02
-9.35833E-08, -1.6972E-02, -4.655E-02
-9.35708E-08, -1.6956E-02, -4.660E-02
-9.35583E-08, -1.6956E-02, -4.671E-02
-9.35458E-08, -1.6946E-02, -4.655E-02
-9.35333E-08, -1.6941E-02, -4.660E-02
-9.35208E-08, -1.6930E-02, -4.655E-02
-9.35083E-08, -1.6935E-02, -4.639E-02
-9.34958E-08, -1.6935E-02, -4.634E-02
-9.34833E-08, -1.6941E-02, -4.634E-02
-9.34708E-08, -1.6946E-02, -4.618E-02
-9.34583E-08, -1.6935E-02, -4.602E-02
-9.34458E-08, -1.6946E-02, -4.592E-02
-9.34333E-08, -1.6956E-02, -4.581E-02
-9.34208E-08, -1.6946E-02, -4.571E-02
-9.34083E-08, -1.6956E-02, -4.544E-02
-9.33958E-08, -1.6956E-02, -4.529E-02
-9.33833E-08, -1.6967E-02, -4.518E-02
-9.33708E-08, -1.6972E-02, -4.486E-02
-9.33583E-08, -1.6978E-02, -4.471E-02
-9.33458E-08, -1.6983E-02, -4.465E-02
-9.33333E-08, -1.6988E-02, -4.444E-02
-9.33208E-08, -1.6988E-02, -4.428E-02
-9.33083E-08, -1.6999E-02, -4.418E-02
-9.32958E-08, -1.7004E-02, -4.392E-02
-9.32833E-08, -1.7014E-02, -4.381E-02
-9.32708E-08, -1.7020E-02, -4.370E-02
-9.32583E-08, -1.7020E-02, -4.355E-02
-9.32458E-08, -1.7030E-02, -4.344E-02
-9.32333E-08, -1.7035E-02, -4.339E-02
-9.32208E-08, -1.7041E-02, -4.328E-02
-9.32083E-08, -1.7041E-02, -4.323E-02
-9.31958E-08, -1.7051E-02, -4.318E-02
-9.31833E-08, -1.7062E-02, -4.328E-02
-9.31708E-08, -1.7062E-02, -4.318E-02
-9.31583E-08, -1.7062E-02, -4.328E-02
-9.31458E-08, -1.7072E-02, -4.334E-02
-9.31333E-08, -1.7072E-02, -4.344E-02
-9.31208E-08, -1.7078E-02, -4.355E-02
-9.31083E-08, -1.7088E-02, -4.365E-02
-9.30958E-08, -1.7088E-02, -4.381E-02
-9.30833E-08, -1.7093E-02, -4.397E-02
-9.30708E-08, -1.7104E-02, -4.407E-02
-9.30583E-08, -1.7109E-02, -4.439E-02
-9.30458E-08, -1.7109E-02, -4.460E-02
-9.30333E-08, -1.7115E-02, -4.481E-02
-9.30208E-08, -1.7120E-02, -4.502E-02
-9.30083E-08, -1.7125E-02, -4.518E-02
-9.29958E-08, -1.7125E-02, -4.544E-02
-9.29833E-08, -1.7115E-02, -4.581E-02
-9.29708E-08, -1.7125E-02, -4.581E-02
-9.29583E-08, -1.7120E-02, -4.613E-02
-9.29458E-08, -1.7125E-02, -4.639E-02
-9.29333E-08, -1.7125E-02, -4.655E-02
-9.29208E-08, -1.7115E-02, -4.666E-02
-9.29083E-08, -1.7109E-02, -4.687E-02
-9.28958E-08, -1.7109E-02, -4.697E-02
-9.28833E-08, -1.7099E-02, -4.713E-02
-9.28708E-08, -1.7083E-02, -4.708E-02
-9.28583E-08, -1.7083E-02, -4.718E-02
-9.28458E-08, -1.7072E-02, -4.718E-02
-9.28333E-08, -1.7057E-02, -4.724E-02
-9.28208E-08, -1.7046E-02, -4.718E-02
-9.28083E-08, -1.7035E-02, -4.708E-02
-9.27958E-08, -1.7014E-02, -4.697E-02
-9.27833E-08, -1.7004E-02, -4.692E-02
-9.27708E-08, -1.6983E-02, -4.666E-02
-9.27583E-08, -1.6967E-02, -4.655E-02
-9.27458E-08, -1.6951E-02, -4.634E-02
-9.27333E-08, -1.6930E-02, -4.618E-02
-9.27208E-08, -1.6904E-02, -4.592E-02
-9.27083E-08, -1.6888E-02, -4.565E-02
-9.26958E-08, -1.6877E-02, -4.529E-02
-9.26833E-08, -1.6851E-02, -4.513E-02
-9.26708E-08, -1.6835E-02, -4.486E-02
-9.26583E-08, -1.6825E-02, -4.465E-02
-9.26458E-08, -1.6804E-02, -4.444E-02
-9.26333E-08, -1.6788E-02, -4.423E-02
-9.26208E-08, -1.6777E-02, -4.402E-02
-9.26083E-08, -1.6761E-02, -4.386E-02
-9.25958E-08, -1.6756E-02, -4.376E-02
-9.25833E-08, -1.6751E-02, -4.365E-02
-9.25708E-08, -1.6740E-02, -4.355E-02
-9.25583E-08, -1.6730E-02, -4.349E-02
-9.25458E-08, -1.6730E-02, -4.355E-02
-9.25333E-08, -1.6735E-02, -4.360E-02
-9.25208E-08, -1.6735E-02, -4.360E-02
-9.25083E-08, -1.6740E-02, -4.376E-02
-9.24958E-08, -1.6751E-02, -4.376E-02
-9.24833E-08, -1.6746E-02, -4.386E-02
-9.24708E-08, -1.6756E-02, -4.418E-02
-9.24583E-08, -1.6788E-02, -4.450E-02
-9.24458E-08, -1.6798E-02, -4.460E-02
-9.24333E-08, -1.6814E-02, -4.492E-02
-9.24208E-08, -1.6825E-02, -4.513E-02
-9.24083E-08, -1.6851E-02, -4.539E-02
-9.23958E-08, -1.6872E-02, -4.565E-02
-9.23833E-08, -1.6904E-02, -4.592E-02
-9.23708E-08, -1.6914E-02, -4.613E-02
-9.23583E-08, -1.6946E-02, -4.644E-02
-9.23458E-08, -1.6962E-02, -4.676E-02
-9.23333E-08, -1.6999E-02, -4.702E-02
-9.23208E-08, -1.7020E-02, -4.729E-02
-9.23083E-08, -1.7051E-02, -4.739E-02
-9.22958E-08, -1.7083E-02, -4.750E-02
-9.22833E-08, -1.7099E-02, -4.760E-02
-9.22708E-08, -1.7125E-02, -4.766E-02
-9.22583E-08, -1.7146E-02, -4.792E-02
-9.22458E-08, -1.7167E-02, -4.781E-02
-9.22333E-08, -1.7194E-02, -4.787E-02
-9.22208E-08, -1.7209E-02, -4.776E-02
-9.22083E-08, -1.7220E-02, -4.760E-02
-9.21958E-08, -1.7230E-02, -4.755E-02
-9.21833E-08, -1.7241E-02, -4.750E-02
-9.21708E-08, -1.7257E-02, -4.718E-02
-9.21583E-08, -1.7257E-02, -4.708E-02
-9.21458E-08, -1.7273E-02, -4.671E-02
-9.21333E-08, -1.7273E-02, -4.655E-02
-9.21208E-08, -1.7267E-02, -4.629E-02
-9.21083E-08, -1.7278E-02, -4.597E-02
-9.20958E-08, -1.7267E-02, -4.565E-02
-9.20833E-08, -1.7262E-02, -4.539E-02
-9.20708E-08, -1.7252E-02, -4.502E-02
-9.20583E-08, -1.7252E-02, -4.471E-02
-9.20458E-08, -1.7236E-02, -4.444E-02
-9.20333E-08, -1.7236E-02, -4.418E-02
-9.20208E-08, -1.7215E-02, -4.386E-02
-9.20083E-08, -1.7204E-02, -4.355E-02
-9.19958E-08, -1.7199E-02, -4.318E-02
-9.19833E-08, -1.7194E-02, -4.313E-02
-9.19708E-08, -1.7178E-02, -4.276E-02
-9.19583E-08, -1.7167E-02, -4.249E-02
-9.19458E-08, -1.7157E-02, -4.239E-02
-9.19333E-08, -1.7157E-02, -4.218E-02
-9.19208E-08, -1.7136E-02, -4.202E-02
-9.19083E-08, -1.7136E-02, -4.191E-02
-9.18958E-08, -1.7120E-02, -4.176E-02
-9.18833E-08, -1.7120E-02, -4.165E-02
-9.18708E-08, -1.7115E-02, -4.154E-02
-9.18583E-08, -1.7109E-02, -4.139E-02
-9.18458E-08, -1.7115E-02, -4.133E-02
-9.18333E-08, -1.7104E-02, -4.133E-02
-9.18208E-08, -1.7109E-02, -4.128E-02
-9.18083E-08, -1.7109E-02, -4.118E-02
-9.17958E-08, -1.7109E-02, -4.112E-02
-9.17833E-08, -1.7104E-02, -4.123E-02
-9.17708E-08, -1.7109E-02, -4.107E-02
-9.17583E-08, -1.7093E-02, -4.107E-02
-9.17458E-08, -1.7104E-02, -4.112E-02
-9.17333E-08, -1.7104E-02, -4.112E-02
-9.17208E-08, -1.7099E-02, -4.102E-02
-9.17083E-08, -1.7099E-02, -4.107E-02
-9.16958E-08, -1.7093E-02, -4.096E-02
-9.16833E-08, -1.7088E-02, -4.091E-02
-9.16708E-08, -1.7083E-02, -4.096E-02
-9.16583E-08, -1.7083E-02, -4.091E-02
-9.16458E-08, -1.7072E-02, -4.086E-02
-9.16333E-08, -1.7072E-02, -4.102E-02
-9.16208E-08, -1.7057E-02, -4.102E-02
-9.16083E-08, -1.7051E-02, -4.091E-02
-9.15958E-08, -1.7051E-02, -4.102E-02
-9.15833E-08, -1.7035E-02, -4.102E-02
-9.15708E-08, -1.7020E-02, -4.107E-02
-9.15583E-08, -1.7014E-02, -4.107E-02
-9.15458E-08, -1.7009E-02, -4.118E-02
-9.15333E-08, -1.6999E-02, -4.133E-02
-9.15208E-08, -1.6983E-02, -4.139E-02
-9.15083E-08, -1.6983E-02, -4.154E-02
-9.14958E-08, -1.6972E-02, -4.170E-02
-9.14833E-08, -1.6962E-02, -4.181E-02
-9.14708E-08, -1.6956E-02, -4.202E-02
-9.14583E-08, -1.6935E-02, -4.228E-02
-9.14458E-08, -1.6930E-02, -4.249E-02
-9.14333E-08, -1.6935E-02, -4.270E-02
-9.14208E-08, -1.6930E-02, -4.291E-02
-9.14083E-08, -1.6920E-02, -4.323E-02
-9.13958E-08, -1.6925E-02, -4.339E-02
-9.13833E-08, -1.6930E-02, -4.381E-02
-9.13708E-08, -1.6920E-02, -4.407E-02
-9.13583E-08, -1.6925E-02, -4.434E-02
-9.13458E-08, -1.6930E-02, -4.471E-02
-9.13333E-08, -1.6925E-02, -4.497E-02
-9.13208E-08, -1.6925E-02, -4.523E-02
-9.13083E-08, -1.6941E-02, -4.555E-02
-9.12958E-08, -1.6930E-02, -4.581E-02
-9.12833E-08, -1.6935E-02, -4.602E-02
-9.12708E-08, -1.6941E-02, -4.629E-02
-9.12583E-08, -1.6946E-02, -4.650E-02
-9.12458E-08, -1.6951E-02, -4.671E-02
-9.12333E-08, -1.6951E-02, -4.687E-02
-9.12208E-08, -1.6946E-02, -4.708E-02
-9.12083E-08, -1.6941E-02, -4.708E-02
-9.11958E-08, -1.6946E-02, -4.713E-02
-9.11833E-08, -1.6941E-02, -4.734E-02
-9.11708E-08, -1.6935E-02, -4.729E-02
-9.11583E-08, -1.6930E-02, -4.734E-02
-9.11458E-08, -1.6925E-02, -4.724E-02
-9.11333E-08, -1.6914E-02, -4.724E-02
-9.11208E-08, -1.6914E-02, -4.724E-02
-9.11083E-08, -1.6898E-02, -4.708E-02
-9.10958E-08, -1.6883E-02, -4.702E-02
-9.10833E-08, -1.6867E-02, -4.692E-02
-9.10708E-08, -1.6856E-02, -4.676E-02
-9.10583E-08, -1.6851E-02, -4.666E-02
-9.10458E-08, -1.6841E-02, -4.650E-02
-9.10333E-08, -1.6819E-02, -4.634E-02
-9.10208E-08, -1.6804E-02, -4.623E-02
-9.10083E-08, -1.6793E-02, -4.597E-02
-9.09958E-08, -1.6783E-02, -4.581E-02
-9.09833E-08, -1.6772E-02, -4.576E-02
-9.09708E-08, -1.6761E-02, -4.560E-02
-9.09583E-08, -1.6746E-02, -4.550E-02
-9.09458E-08, -1.6730E-02, -4.539E-02
-9.09333E-08, -1.6730E-02, -4.534E-02
-9.09208E-08, -1.6730E-02, -4.523E-02
-9.09083E-08, -1.6725E-02, -4.523E-02
-9.08958E-08, -1.6698E-02, -4.507E-02
-9.08833E-08, -1.6704E-02, -4.513E-02
-9.08708E-08, -1.6709E-02, -4.513E-02
-9.08583E-08, -1.6709E-02, -4.518E-02
-9.08458E-08, -1.6714E-02, -4.513E-02
-9.08333E-08, -1.6719E-02, -4.518E-02
-9.08208E-08, -1.6725E-02, -4.529E-02
-9.08083E-08, -1.6730E-02, -4.534E-02
-9.07958E-08, -1.6735E-02, -4.534E-02
-9.07833E-08, -1.6740E-02, -4.539E-02
-9.07708E-08, -1.6761E-02, -4.555E-02
-9.07583E-08, -1.6767E-02, -4.555E-02
-9.07458E-08, -1.6783E-02, -4.560E-02
-9.07333E-08, -1.6798E-02, -4.576E-02
-9.07208E-08, -1.6804E-02, -4.587E-02
-9.07083E-08, -1.6830E-02, -4.597E-02
-9.06958E-08, -1.6830E-02, -4.592E-02
-9.06833E-08, -1.6862E-02, -4.597E-02
-9.06708E-08, -1.6856E-02, -4.597E-02
-9.06583E-08, -1.6883E-02, -4.608E-02
-9.06458E-08, -1.6893E-02, -4.613E-02
-9.06333E-08, -1.6909E-02, -4.618E-02
-9.06208E-08, -1.6920E-02, -4.618E-02
-9.06083E-08, -1.6946E-02, -4.602E-02
-9.05958E-08, -1.6941E-02, -4.602E-02
-9.05833E-08, -1.6956E-02, -4.602E-02
-9.05708E-08, -1.6972E-02, -4.597E-02
-9.05583E-08, -1.6978E-02, -4.597E-02
-9.05458E-08, -1.6978E-02, -4.587E-02
-9.05333E-08, -1.6999E-02, -4.592E-02
-9.05208E-08, -1.6999E-02, -4.587E-02
-9.05083E-08, -1.7004E-02, -4.581E-02
-9.04958E-08, -1.7004E-02, -4.565E-02
-9.04833E-08, -1.7020E-02, -4.571E-02
-9.04708E-08, -1.7014E-02, -4.565E-02
-9.04583E-08, -1.7020E-02, -4.560E-02
-9.04458E-08, -1.7020E-02, -4.555E-02
-9.04333E-08, -1.7025E-02, -4.555E-02
-9.04208E-08, -1.7014E-02, -4.544E-02
-9.04083E-08, -1.7014E-02, -4.544E-02
-9.03958E-08, -1.7020E-02, -4.539E-02
-9.03833E-08, -1.7020E-02, -4.544E-02
-9.03708E-08, -1.7014E-02, -4.534E-02
-9.03583E-08, -1.7009E-02, -4.534E-02
-9.03458E-08, -1.6999E-02, -4.529E-02
-9.03333E-08, -1.7014E-02, -4.534E-02
-9.03208E-08, -1.7009E-02, -4.529E-02
-9.03083E-08, -1.6999E-02, -4.534E-02
-9.02958E-08, -1.7004E-02, -4.523E-02
-9.02833E-08, -1.7004E-02, -4.523E-02
-9.02708E-08, -1.7009E-02, -4.523E-02
-9.02583E-08, -1.7014E-02, -4.523E-02
-9.02458E-08, -1.7009E-02, -4.513E-02
-9.02333E-08, -1.7020E-02, -4.518E-02
-9.02208E-08, -1.7014E-02, -4.502E-02
