analysis/example_BAT54_5V_100mA.csv

,Channel 1,Channel 2
Revision:           ,0,0
Type:               ,interpolation,interpolation
Start:              ,0,0
Points:             ,15983,15983
Count:              ,1,1
XDispRange:         ,2.00000E-08,2.00000E-08
XDispOrg:           ,-6.736600000E-09,-6.736600000E-09
XInc:               ,1.2500000E-11,1.2500000E-11
XOrg:               ,-9.6498205685E-08,-9.6498205685E-08
Units:              ,second,second
YDispRange:         ,1.60000E-01,8.00000E-01
YDispOrg:           ,-9.39999986439943E-03,2.91999995708466E-01
YInc:               ,2.634639258758E-06,1.3173196748539E-05
YOrg:               ,-7.07081423030390E-03,3.03645929250506E-01
Units:              ,Volt,Volt
Frame:              ,MSO9404A:MY53310147,MSO9404A:MY53310147
Date:               ,6 JUL 2021,6 JUL 2021
Time:               ,08:31:58,08:31:58
Max Bandwidth:      ,1139000000,1139000000
Min Bandwidth:      ,0,0
Time Tags (Channel 1),Channel 1,Channel 2
-9.64982E-08, -5.7498E-02, -7.142E-02
-9.64857E-08, -5.7508E-02, -7.179E-02
-9.64732E-08, -5.7540E-02, -7.205E-02
-9.64607E-08, -5.7572E-02, -7.226E-02
-9.64482E-08, -5.7603E-02, -7.248E-02
-9.64357E-08, -5.7624E-02, -7.269E-02
-9.64232E-08, -5.7666E-02, -7.295E-02
-9.64107E-08, -5.7709E-02, -7.305E-02
-9.63982E-08, -5.7730E-02, -7.342E-02
-9.63857E-08, -5.7772E-02, -7.342E-02
-9.63732E-08, -5.7803E-02, -7.363E-02
-9.63607E-08, -5.7835E-02, -7.379E-02
-9.63482E-08, -5.7877E-02, -7.395E-02
-9.63357E-08, -5.7888E-02, -7.400E-02
-9.63232E-08, -5.7951E-02, -7.406E-02
-9.63107E-08, -5.7972E-02, -7.406E-02
-9.62982E-08, -5.8025E-02, -7.400E-02
-9.62857E-08, -5.8035E-02, -7.400E-02
-9.62732E-08, -5.8056E-02, -7.390E-02
-9.62607E-08, -5.8067E-02, -7.390E-02
-9.62482E-08, -5.8120E-02, -7.374E-02
-9.62357E-08, -5.8141E-02, -7.353E-02
-9.62232E-08, -5.8151E-02, -7.342E-02
-9.62107E-08, -5.8172E-02, -7.316E-02
-9.61982E-08, -5.8172E-02, -7.290E-02
-9.61857E-08, -5.8193E-02, -7.263E-02
-9.61732E-08, -5.8204E-02, -7.248E-02
-9.61607E-08, -5.8193E-02, -7.205E-02
-9.61482E-08, -5.8214E-02, -7.179E-02
-9.61357E-08, -5.8214E-02, -7.153E-02
-9.61232E-08, -5.8204E-02, -7.116E-02
-9.61107E-08, -5.8183E-02, -7.100E-02
-9.60982E-08, -5.8172E-02, -7.058E-02
-9.60857E-08, -5.8183E-02, -7.037E-02
-9.60732E-08, -5.8151E-02, -7.000E-02
-9.60607E-08, -5.8130E-02, -6.974E-02
-9.60482E-08, -5.8130E-02, -6.963E-02
-9.60357E-08, -5.8099E-02, -6.937E-02
-9.60232E-08, -5.8067E-02, -6.921E-02
-9.60107E-08, -5.8067E-02, -6.900E-02
-9.59982E-08, -5.8025E-02, -6.889E-02
-9.59857E-08, -5.8014E-02, -6.879E-02
-9.59732E-08, -5.7983E-02, -6.879E-02
-9.59607E-08, -5.7951E-02, -6.884E-02
-9.59482E-08, -5.7940E-02, -6.889E-02
-9.59357E-08, -5.7898E-02, -6.884E-02
-9.59232E-08, -5.7898E-02, -6.889E-02
-9.59107E-08, -5.7856E-02, -6.900E-02
-9.58982E-08, -5.7846E-02, -6.905E-02
-9.58857E-08, -5.7835E-02, -6.921E-02
-9.58732E-08, -5.7814E-02, -6.942E-02
-9.58607E-08, -5.7782E-02, -6.958E-02
-9.58482E-08, -5.7793E-02, -6.979E-02
-9.58357E-08, -5.7761E-02, -6.995E-02
-9.58232E-08, -5.7740E-02, -7.010E-02
-9.58107E-08, -5.7751E-02, -7.042E-02
-9.57982E-08, -5.7730E-02, -7.053E-02
-9.57857E-08, -5.7730E-02, -7.074E-02
-9.57732E-08, -5.7709E-02, -7.095E-02
-9.57607E-08, -5.7709E-02, -7.116E-02
-9.57482E-08, -5.7719E-02, -7.137E-02
-9.57357E-08, -5.7698E-02, -7.153E-02
-9.57232E-08, -5.7698E-02, -7.158E-02
-9.57107E-08, -5.7709E-02, -7.174E-02
-9.56982E-08, -5.7709E-02, -7.184E-02
-9.56857E-08, -5.7698E-02, -7.195E-02
-9.56732E-08, -5.7709E-02, -7.205E-02
-9.56607E-08, -5.7730E-02, -7.205E-02
-9.56482E-08, -5.7730E-02, -7.211E-02
-9.56357E-08, -5.7740E-02, -7.211E-02
-9.56232E-08, -5.7740E-02, -7.205E-02
-9.56107E-08, -5.7740E-02, -7.211E-02
-9.55982E-08, -5.7793E-02, -7.211E-02
-9.55857E-08, -5.7793E-02, -7.200E-02
-9.55732E-08, -5.7803E-02, -7.195E-02
-9.55607E-08, -5.7803E-02, -7.195E-02
-9.55482E-08, -5.7835E-02, -7.184E-02
-9.55357E-08, -5.7846E-02, -7.174E-02
-9.55232E-08, -5.7877E-02, -7.168E-02
-9.55107E-08, -5.7888E-02, -7.168E-02
-9.54982E-08, -5.7909E-02, -7.158E-02
-9.54857E-08, -5.7930E-02, -7.147E-02
-9.54732E-08, -5.7962E-02, -7.147E-02
-9.54607E-08, -5.7951E-02, -7.137E-02
-9.54482E-08, -5.8004E-02, -7.132E-02
-9.54357E-08, -5.8014E-02, -7.116E-02
-9.54232E-08, -5.8046E-02, -7.126E-02
-9.54107E-08, -5.8077E-02, -7.116E-02
-9.53982E-08, -5.8088E-02, -7.132E-02
-9.53857E-08, -5.8109E-02, -7.111E-02
-9.53732E-08, -5.8141E-02, -7.111E-02
-9.53607E-08, -5.8162E-02, -7.116E-02
-9.53482E-08, -5.8172E-02, -7.116E-02
-9.53357E-08, -5.8183E-02, -7.121E-02
-9.53232E-08, -5.8183E-02, -7.105E-02
-9.53107E-08, -5.8204E-02, -7.105E-02
-9.52982E-08, -5.8204E-02, -7.111E-02
-9.52857E-08, -5.8214E-02, -7.111E-02
-9.52732E-08, -5.8225E-02, -7.121E-02
-9.52607E-08, -5.8214E-02, -7.111E-02
-9.52482E-08, -5.8225E-02, -7.111E-02
-9.52357E-08, -5.8225E-02, -7.105E-02
-9.52232E-08, -5.8214E-02, -7.111E-02
-9.52107E-08, -5.8214E-02, -7.105E-02
-9.51982E-08, -5.8193E-02, -7.111E-02
-9.51857E-08, -5.8172E-02, -7.089E-02
-9.51732E-08, -5.8141E-02, -7.095E-02
-9.51607E-08, -5.8141E-02, -7.095E-02
-9.51482E-08, -5.8120E-02, -7.084E-02
-9.51357E-08, -5.8088E-02, -7.079E-02
-9.51232E-08, -5.8067E-02, -7.074E-02
-9.51107E-08, -5.8046E-02, -7.063E-02
-9.50982E-08, -5.8004E-02, -7.063E-02
-9.50857E-08, -5.7972E-02, -7.058E-02
-9.50732E-08, -5.7962E-02, -7.053E-02
-9.50607E-08, -5.7930E-02, -7.058E-02
-9.50482E-08, -5.7909E-02, -7.053E-02
-9.50357E-08, -5.7877E-02, -7.047E-02
-9.50232E-08, -5.7856E-02, -7.042E-02
-9.50107E-08, -5.7835E-02, -7.047E-02
-9.49982E-08, -5.7803E-02, -7.047E-02
-9.49857E-08, -5.7793E-02, -7.042E-02
-9.49732E-08, -5.7761E-02, -7.047E-02
-9.49607E-08, -5.7740E-02, -7.058E-02
-9.49482E-08, -5.7740E-02, -7.063E-02
-9.49357E-08, -5.7740E-02, -7.068E-02
-9.49232E-08, -5.7719E-02, -7.068E-02
-9.49107E-08, -5.7698E-02, -7.074E-02
-9.48982E-08, -5.7709E-02, -7.095E-02
-9.48857E-08, -5.7709E-02, -7.100E-02
-9.48732E-08, -5.7709E-02, -7.121E-02
-9.48607E-08, -5.7719E-02, -7.121E-02
-9.48482E-08, -5.7730E-02, -7.132E-02
-9.48357E-08, -5.7740E-02, -7.147E-02
-9.48232E-08, -5.7740E-02, -7.158E-02
-9.48107E-08, -5.7772E-02, -7.163E-02
-9.47982E-08, -5.7761E-02, -7.184E-02
-9.47857E-08, -5.7793E-02, -7.190E-02
-9.47732E-08, -5.7793E-02, -7.205E-02
-9.47607E-08, -5.7803E-02, -7.221E-02
-9.47482E-08, -5.7825E-02, -7.232E-02
-9.47357E-08, -5.7825E-02, -7.237E-02
-9.47232E-08, -5.7867E-02, -7.248E-02
-9.47107E-08, -5.7867E-02, -7.253E-02
-9.46982E-08, -5.7888E-02, -7.258E-02
-9.46857E-08, -5.7888E-02, -7.263E-02
-9.46732E-08, -5.7909E-02, -7.274E-02
-9.46607E-08, -5.7909E-02, -7.279E-02
-9.46482E-08, -5.7919E-02, -7.295E-02
-9.46357E-08, -5.7909E-02, -7.290E-02
-9.46232E-08, -5.7898E-02, -7.290E-02
-9.46107E-08, -5.7919E-02, -7.284E-02
-9.45982E-08, -5.7919E-02, -7.305E-02
-9.45857E-08, -5.7909E-02, -7.284E-02
-9.45732E-08, -5.7909E-02, -7.300E-02
-9.45607E-08, -5.7877E-02, -7.305E-02
-9.45482E-08, -5.7919E-02, -7.300E-02
-9.45357E-08, -5.7909E-02, -7.300E-02
-9.45232E-08, -5.7888E-02, -7.300E-02
-9.45107E-08, -5.7856E-02, -7.295E-02
-9.44982E-08, -5.7867E-02, -7.300E-02
-9.44857E-08, -5.7867E-02, -7.311E-02
-9.44732E-08, -5.7856E-02, -7.305E-02
-9.44607E-08, -5.7867E-02, -7.305E-02
-9.44482E-08, -5.7867E-02, -7.316E-02
-9.44357E-08, -5.7877E-02, -7.316E-02
-9.44232E-08, -5.7888E-02, -7.316E-02
-9.44107E-08, -5.7898E-02, -7.316E-02
-9.43982E-08, -5.7898E-02, -7.327E-02
-9.43857E-08, -5.7919E-02, -7.327E-02
-9.43732E-08, -5.7930E-02, -7.332E-02
-9.43607E-08, -5.7962E-02, -7.337E-02
-9.43482E-08, -5.7983E-02, -7.353E-02
-9.43357E-08, -5.8014E-02, -7.342E-02
-9.43232E-08, -5.8025E-02, -7.353E-02
-9.43107E-08, -5.8046E-02, -7.348E-02
-9.42982E-08, -5.8099E-02, -7.358E-02
-9.42857E-08, -5.8120E-02, -7.348E-02
-9.42732E-08, -5.8162E-02, -7.353E-02
-9.42607E-08, -5.8183E-02, -7.363E-02
-9.42482E-08, -5.8225E-02, -7.358E-02
-9.42357E-08, -5.8246E-02, -7.353E-02
-9.42232E-08, -5.8278E-02, -7.353E-02
-9.42107E-08, -5.8320E-02, -7.337E-02
-9.41982E-08, -5.8320E-02, -7.342E-02
-9.41857E-08, -5.8362E-02, -7.337E-02
-9.41732E-08, -5.8373E-02, -7.327E-02
-9.41607E-08, -5.8404E-02, -7.316E-02
-9.41482E-08, -5.8404E-02, -7.311E-02
-9.41357E-08, -5.8394E-02, -7.305E-02
-9.41232E-08, -5.8404E-02, -7.290E-02
-9.41107E-08, -5.8404E-02, -7.284E-02
-9.40982E-08, -5.8383E-02, -7.269E-02
-9.40857E-08, -5.8373E-02, -7.269E-02
-9.40732E-08, -5.8362E-02, -7.248E-02
-9.40607E-08, -5.8330E-02, -7.237E-02
-9.40482E-08, -5.8320E-02, -7.221E-02
-9.40357E-08, -5.8288E-02, -7.221E-02
-9.40232E-08, -5.8257E-02, -7.200E-02
-9.40107E-08, -5.8214E-02, -7.184E-02
-9.39982E-08, -5.8172E-02, -7.184E-02
-9.39857E-08, -5.8141E-02, -7.168E-02
-9.39732E-08, -5.8099E-02, -7.158E-02
-9.39607E-08, -5.8046E-02, -7.147E-02
-9.39482E-08, -5.8004E-02, -7.142E-02
-9.39357E-08, -5.7972E-02, -7.132E-02
-9.39232E-08, -5.7909E-02, -7.121E-02
-9.39107E-08, -5.7877E-02, -7.116E-02
-9.38982E-08, -5.7856E-02, -7.111E-02
-9.38857E-08, -5.7814E-02, -7.100E-02
-9.38732E-08, -5.7782E-02, -7.105E-02
-9.38607E-08, -5.7772E-02, -7.100E-02
-9.38482E-08, -5.7761E-02, -7.105E-02
-9.38357E-08, -5.7730E-02, -7.100E-02
-9.38232E-08, -5.7719E-02, -7.089E-02
-9.38107E-08, -5.7709E-02, -7.095E-02
-9.37982E-08, -5.7719E-02, -7.095E-02
-9.37857E-08, -5.7719E-02, -7.089E-02
-9.37732E-08, -5.7719E-02, -7.089E-02
-9.37607E-08, -5.7740E-02, -7.089E-02
-9.37482E-08, -5.7761E-02, -7.095E-02
-9.37357E-08, -5.7761E-02, -7.089E-02
-9.37232E-08, -5.7782E-02, -7.100E-02
-9.37107E-08, -5.7803E-02, -7.100E-02
-9.36982E-08, -5.7825E-02, -7.100E-02
-9.36857E-08, -5.7867E-02, -7.111E-02
-9.36732E-08, -5.7888E-02, -7.116E-02
-9.36607E-08, -5.7909E-02, -7.116E-02
-9.36482E-08, -5.7940E-02, -7.132E-02
-9.36357E-08, -5.7962E-02, -7.126E-02
-9.36232E-08, -5.7983E-02, -7.121E-02
-9.36107E-08, -5.8014E-02, -7.132E-02
-9.35982E-08, -5.8014E-02, -7.137E-02
-9.35857E-08, -5.8014E-02, -7.147E-02
-9.35732E-08, -5.8014E-02, -7.142E-02
-9.35607E-08, -5.8035E-02, -7.142E-02
-9.35482E-08, -5.8025E-02, -7.147E-02
-9.35357E-08, -5.8025E-02, -7.158E-02
-9.35232E-08, -5.8014E-02, -7.163E-02
-9.35107E-08, -5.8004E-02, -7.163E-02
-9.34982E-08, -5.7993E-02, -7.163E-02
-9.34857E-08, -5.7993E-02, -7.168E-02
-9.34732E-08, -5.7940E-02, -7.179E-02
-9.34607E-08, -5.7919E-02, -7.184E-02
-9.34482E-08, -5.7898E-02, -7.190E-02
-9.34357E-08, -5.7877E-02, -7.190E-02
-9.34232E-08, -5.7846E-02, -7.195E-02
-9.34107E-08, -5.7835E-02, -7.195E-02
-9.33982E-08, -5.7793E-02, -7.211E-02
-9.33857E-08, -5.7782E-02, -7.211E-02
-9.33732E-08, -5.7751E-02, -7.205E-02
-9.33607E-08, -5.7719E-02, -7.216E-02
-9.33482E-08, -5.7698E-02, -7.221E-02
-9.33357E-08, -5.7698E-02, -7.226E-02
-9.33232E-08, -5.7677E-02, -7.221E-02
-9.33107E-08, -5.7688E-02, -7.216E-02
-9.32982E-08, -5.7656E-02, -7.216E-02
-9.32857E-08, -5.7677E-02, -7.216E-02
-9.32732E-08, -5.7666E-02, -7.216E-02
-9.32607E-08, -5.7677E-02, -7.216E-02
-9.32482E-08, -5.7719E-02, -7.211E-02
-9.32357E-08, -5.7709E-02, -7.205E-02
-9.32232E-08, -5.7740E-02, -7.190E-02
-9.32107E-08, -5.7782E-02, -7.190E-02
-9.31982E-08, -5.7793E-02, -7.184E-02
-9.31857E-08, -5.7803E-02, -7.174E-02
-9.31732E-08, -5.7835E-02, -7.163E-02
-9.31607E-08, -5.7888E-02, -7.153E-02
-9.31482E-08, -5.7909E-02, -7.142E-02
-9.31357E-08, -5.7962E-02, -7.137E-02
-9.31232E-08, -5.7983E-02, -7.121E-02
-9.31107E-08, -5.7993E-02, -7.095E-02
-9.30982E-08, -5.8025E-02, -7.089E-02
-9.30857E-08, -5.8067E-02, -7.068E-02
-9.30732E-08, -5.8088E-02, -7.053E-02
-9.30607E-08, -5.8099E-02, -7.047E-02
-9.30482E-08, -5.8141E-02, -7.031E-02
-9.30357E-08, -5.8151E-02, -7.016E-02
-9.30232E-08, -5.8151E-02, -7.000E-02
-9.30107E-08, -5.8162E-02, -6.979E-02
-9.29982E-08, -5.8162E-02, -6.974E-02
-9.29857E-08, -5.8162E-02, -6.947E-02
-9.29732E-08, -5.8162E-02, -6.942E-02
-9.29607E-08, -5.8172E-02, -6.937E-02
-9.29482E-08, -5.8162E-02, -6.921E-02
-9.29357E-08, -5.8141E-02, -6.916E-02
-9.29232E-08, -5.8109E-02, -6.905E-02
-9.29107E-08, -5.8088E-02, -6.894E-02
-9.28982E-08, -5.8067E-02, -6.894E-02
-9.28857E-08, -5.8035E-02, -6.889E-02
-9.28732E-08, -5.8014E-02, -6.889E-02
-9.28607E-08, -5.7993E-02, -6.879E-02
-9.28482E-08, -5.7962E-02, -6.884E-02
-9.28357E-08, -5.7940E-02, -6.879E-02
-9.28232E-08, -5.7898E-02, -6.879E-02
-9.28107E-08, -5.7867E-02, -6.879E-02
-9.27982E-08, -5.7835E-02, -6.884E-02
-9.27857E-08, -5.7825E-02, -6.879E-02
-9.27732E-08, -5.7782E-02, -6.879E-02
-9.27607E-08, -5.7761E-02, -6.889E-02
-9.27482E-08, -5.7751E-02, -6.894E-02
-9.27357E-08, -5.7709E-02, -6.894E-02
-9.27232E-08, -5.7698E-02, -6.900E-02
-9.27107E-08, -5.7677E-02, -6.900E-02
-9.26982E-08, -5.7666E-02, -6.894E-02
-9.26857E-08, -5.7656E-02, -6.905E-02
-9.26732E-08, -5.7656E-02, -6.921E-02
-9.26607E-08, -5.7624E-02, -6.921E-02
-9.26482E-08, -5.7624E-02, -6.921E-02
-9.26357E-08, -5.7614E-02, -6.926E-02
-9.26232E-08, -5.7603E-02, -6.926E-02
-9.26107E-08, -5.7603E-02, -6.916E-02
-9.25982E-08, -5.7624E-02, -6.926E-02
-9.25857E-08, -5.7624E-02, -6.921E-02
-9.25732E-08, -5.7614E-02, -6.916E-02
-9.25607E-08, -5.7614E-02, -6.905E-02
-9.25482E-08, -5.7645E-02, -6.921E-02
-9.25357E-08, -5.7645E-02, -6.910E-02
-9.25232E-08, -5.7656E-02, -6.905E-02
-9.25107E-08, -5.7656E-02, -6.905E-02
-9.24982E-08, -5.7666E-02, -6.894E-02
-9.24857E-08, -5.7677E-02, -6.894E-02
-9.24732E-08, -5.7698E-02, -6.894E-02
-9.24607E-08, -5.7730E-02, -6.884E-02
-9.24482E-08, -5.7730E-02, -6.889E-02
-9.24357E-08, -5.7740E-02, -6.879E-02
-9.24232E-08, -5.7751E-02, -6.873E-02
-9.24107E-08, -5.7782E-02, -6.868E-02
-9.23982E-08, -5.7782E-02, -6.868E-02
-9.23857E-08, -5.7803E-02, -6.863E-02
-9.23732E-08, -5.7803E-02, -6.863E-02
-9.23607E-08, -5.7814E-02, -6.852E-02
-9.23482E-08, -5.7835E-02, -6.858E-02
-9.23357E-08, -5.7835E-02, -6.842E-02
-9.23232E-08, -5.7846E-02, -6.847E-02
-9.23107E-08, -5.7867E-02, -6.842E-02
-9.22982E-08, -5.7867E-02, -6.842E-02
-9.22857E-08, -5.7867E-02, -6.847E-02
-9.22732E-08, -5.7867E-02, -6.847E-02
-9.22607E-08, -5.7856E-02, -6.842E-02
-9.22482E-08, -5.7877E-02, -6.847E-02
-9.22357E-08, -5.7867E-02, -6.847E-02
-9.22232E-08, -5.7846E-02, -6.842E-02
-9.22107E-08, -5.7846E-02, -6.842E-02
-9.21982E-08, -5.7825E-02, -6.847E-02
-9.21857E-08, -5.7814E-02, -6.847E-02
-9.21732E-08, -5.7803E-02, -6.847E-02
-9.21607E-08, -5.7782E-02, -6.858E-02
-9.21482E-08, -5.7772E-02, -6.858E-02
-9.21357E-08, -5.7740E-02, -6.863E-02
-9.21232E-08, -5.7730E-02, -6.863E-02
-9.21107E-08, -5.7709E-02, -6.873E-02
-9.20982E-08, -5.7677E-02, -6.879E-02
-9.20857E-08, -5.7666E-02, -6.884E-02
-9.20732E-08, -5.7656E-02, -6.889E-02
-9.20607E-08, -5.7645E-02, -6.894E-02
-9.20482E-08, -5.7624E-02, -6.916E-02
-9.20357E-08, -5.7593E-02, -6.921E-02
-9.20232E-08, -5.7582E-02, -6.926E-02
-9.20107E-08, -5.7603E-02, -6.937E-02
-9.19982E-08, -5.7603E-02, -6.952E-02
-9.19857E-08, -5.7582E-02, -6.963E-02
-9.19732E-08, -5.7593E-02, -6.979E-02
-9.19607E-08, -5.7593E-02, -6.995E-02
-9.19482E-08, -5.7614E-02, -7.016E-02
-9.19357E-08, -5.7645E-02, -7.031E-02
-9.19232E-08, -5.7656E-02, -7.047E-02
-9.19107E-08, -5.7677E-02, -7.079E-02
-9.18982E-08, -5.7709E-02, -7.084E-02
-9.18857E-08, -5.7730E-02, -7.111E-02
-9.18732E-08, -5.7782E-02, -7.132E-02
-9.18607E-08, -5.7803E-02, -7.153E-02
-9.18482E-08, -5.7867E-02, -7.179E-02
-9.18357E-08, -5.7898E-02, -7.195E-02
-9.18232E-08, -5.7940E-02, -7.216E-02
-9.18107E-08, -5.7993E-02, -7.237E-02
-9.17982E-08, -5.8035E-02, -7.269E-02
-9.17857E-08, -5.8077E-02, -7.284E-02
-9.17732E-08, -5.8109E-02, -7.305E-02
-9.17607E-08, -5.8172E-02, -7.321E-02
-9.17482E-08, -5.8214E-02, -7.353E-02
-9.17357E-08, -5.8257E-02, -7.358E-02
-9.17232E-08, -5.8288E-02, -7.374E-02
-9.17107E-08, -5.8309E-02, -7.390E-02
-9.16982E-08, -5.8320E-02, -7.406E-02
-9.16857E-08, -5.8330E-02, -7.406E-02
-9.16732E-08, -5.8373E-02, -7.421E-02
-9.16607E-08, -5.8373E-02, -7.421E-02
-9.16482E-08, -5.8394E-02, -7.432E-02
-9.16357E-08, -5.8362E-02, -7.437E-02
-9.16232E-08, -5.8351E-02, -7.427E-02
-9.16107E-08, -5.8351E-02, -7.427E-02
-9.15982E-08, -5.8320E-02, -7.427E-02
-9.15857E-08, -5.8299E-02, -7.411E-02
-9.15732E-08, -5.8288E-02, -7.416E-02
-9.15607E-08, -5.8246E-02, -7.406E-02
-9.15482E-08, -5.8214E-02, -7.390E-02
-9.15357E-08, -5.8172E-02, -7.374E-02
-9.15232E-08, -5.8130E-02, -7.369E-02
-9.15107E-08, -5.8077E-02, -7.353E-02
-9.14982E-08, -5.8035E-02, -7.337E-02
-9.14857E-08, -5.7993E-02, -7.321E-02
-9.14732E-08, -5.7940E-02, -7.295E-02
-9.14607E-08, -5.7940E-02, -7.279E-02
-9.14482E-08, -5.7888E-02, -7.269E-02
-9.14357E-08, -5.7846E-02, -7.248E-02
-9.14232E-08, -5.7803E-02, -7.237E-02
-9.14107E-08, -5.7782E-02, -7.226E-02
-9.13982E-08, -5.7751E-02, -7.211E-02
-9.13857E-08, -5.7740E-02, -7.184E-02
-9.13732E-08, -5.7719E-02, -7.174E-02
-9.13607E-08, -5.7709E-02, -7.158E-02
-9.13482E-08, -5.7698E-02, -7.158E-02
-9.13357E-08, -5.7688E-02, -7.137E-02
-9.13232E-08, -5.7719E-02, -7.116E-02
-9.13107E-08, -5.7730E-02, -7.100E-02
-9.12982E-08, -5.7740E-02, -7.095E-02
-9.12857E-08, -5.7751E-02, -7.074E-02
-9.12732E-08, -5.7761E-02, -7.079E-02
-9.12607E-08, -5.7772E-02, -7.063E-02
-9.12482E-08, -5.7803E-02, -7.058E-02
-9.12357E-08, -5.7825E-02, -7.047E-02
-9.12232E-08, -5.7846E-02, -7.042E-02
-9.12107E-08, -5.7888E-02, -7.031E-02
-9.11982E-08, -5.7909E-02, -7.026E-02
-9.11857E-08, -5.7930E-02, -7.021E-02
-9.11732E-08, -5.7940E-02, -7.005E-02
-9.11607E-08, -5.7972E-02, -6.995E-02
-9.11482E-08, -5.7983E-02, -6.995E-02
-9.11357E-08, -5.8025E-02, -6.984E-02
-9.11232E-08, -5.8014E-02, -6.979E-02
-9.11107E-08, -5.8004E-02, -6.968E-02
-9.10982E-08, -5.8025E-02, -6.963E-02
-9.10857E-08, -5.8025E-02, -6.958E-02
-9.10732E-08, -5.8025E-02, -6.952E-02
-9.10607E-08, -5.8004E-02, -6.952E-02
-9.10482E-08, -5.8014E-02, -6.963E-02
-9.10357E-08, -5.7993E-02, -6.942E-02
-9.10232E-08, -5.7962E-02, -6.952E-02
-9.10107E-08, -5.7951E-02, -6.963E-02
-9.09982E-08, -5.7940E-02, -6.963E-02
-9.09857E-08, -5.7909E-02, -6.968E-02
-9.09732E-08, -5.7888E-02, -6.979E-02
-9.09607E-08, -5.7867E-02, -6.989E-02
-9.09482E-08, -5.7835E-02, -7.000E-02
-9.09357E-08, -5.7814E-02, -7.010E-02
-9.09232E-08, -5.7793E-02, -7.031E-02
-9.09107E-08, -5.7761E-02, -7.053E-02
-9.08982E-08, -5.7740E-02, -7.068E-02
-9.08857E-08, -5.7719E-02, -7.100E-02
-9.08732E-08, -5.7709E-02, -7.126E-02
-9.08607E-08, -5.7698E-02, -7.153E-02
-9.08482E-08, -5.7666E-02, -7.184E-02
-9.08357E-08, -5.7677E-02, -7.216E-02
-9.08232E-08, -5.7624E-02, -7.258E-02
-9.08107E-08, -5.7645E-02, -7.290E-02
-9.07982E-08, -5.7656E-02, -7.327E-02
-9.07857E-08, -5.7635E-02, -7.369E-02
-9.07732E-08, -5.7635E-02, -7.400E-02
-9.07607E-08, -5.7624E-02, -7.437E-02
-9.07482E-08, -5.7635E-02, -7.479E-02
-9.07357E-08, -5.7656E-02, -7.500E-02
-9.07232E-08, -5.7666E-02, -7.543E-02
-9.07107E-08, -5.7677E-02, -7.564E-02
-9.06982E-08, -5.7688E-02, -7.590E-02
-9.06857E-08, -5.7688E-02, -7.616E-02
-9.06732E-08, -5.7719E-02, -7.648E-02
-9.06607E-08, -5.7740E-02, -7.664E-02
-9.06482E-08, -5.7751E-02, -7.680E-02
-9.06357E-08, -5.7751E-02, -7.695E-02
-9.06232E-08, -5.7782E-02, -7.711E-02
-9.06107E-08, -5.7825E-02, -7.706E-02
-9.05982E-08, -5.7825E-02, -7.722E-02
-9.05857E-08, -5.7867E-02, -7.722E-02
-9.05732E-08, -5.7877E-02, -7.716E-02
-9.05607E-08, -5.7909E-02, -7.706E-02
-9.05482E-08, -5.7930E-02, -7.711E-02
-9.05357E-08, -5.7951E-02, -7.685E-02
-9.05232E-08, -5.7962E-02, -7.674E-02
-9.05107E-08, -5.7993E-02, -7.648E-02
-9.04982E-08, -5.8025E-02, -7.622E-02
-9.04857E-08, -5.8046E-02, -7.611E-02
-9.04732E-08, -5.8077E-02, -7.595E-02
-9.04607E-08, -5.8099E-02, -7.569E-02
-9.04482E-08, -5.8130E-02, -7.548E-02
-9.04357E-08, -5.8151E-02, -7.522E-02
-9.04232E-08, -5.8172E-02, -7.495E-02
-9.04107E-08, -5.8183E-02, -7.474E-02
-9.03982E-08, -5.8204E-02, -7.464E-02
-9.03857E-08, -5.8236E-02, -7.432E-02
-9.03732E-08, -5.8257E-02, -7.411E-02
-9.03607E-08, -5.8267E-02, -7.395E-02
-9.03482E-08, -5.8288E-02, -7.385E-02
-9.03357E-08, -5.8288E-02, -7.369E-02
-9.03232E-08, -5.8309E-02, -7.353E-02
-9.03107E-08, -5.8330E-02, -7.332E-02
-9.02982E-08, -5.8330E-02, -7.332E-02
-9.02857E-08, -5.8299E-02, -7.321E-02
-9.02732E-08, -5.8330E-02, -7.311E-02
-9.02607E-08, -5.8320E-02, -7.311E-02
-9.02482E-08, -5.8320E-02, -7.300E-02
